{
  "files": [
    {
      "fileName": "./content_long_list.txt",
      "SPDXID": "SPDXRef-File--content-long-list.txt-AA4C6B1BB827BB9DB64FAF3F5AA1D789CEB00A51",
      "checksums": [
        {
          "algorithm": "SHA256",
          "checksumValue": "3a66a67e4522e026f677aa8ca0b8c82c8a514fb99548bfa2a8b1fd04bfb14bfa"
        },
        {
          "algorithm": "SHA1",
          "checksumValue": "aa4c6b1bb827bb9db64faf3f5aa1d789ceb00a51"
        }
      ],
      "licenseConcluded": "NOASSERTION",
      "licenseInfoInFiles": [
        "NOASSERTION"
      ],
      "copyrightText": "NOASSERTION"
    },
    {
      "fileName": "./.gitignore",
      "SPDXID": "SPDXRef-File--.gitignore-979C29303F054FA86D2ACA51318A4698A32B1736",
      "checksums": [
        {
          "algorithm": "SHA256",
          "checksumValue": "2f009c2df070d0c59eca0990b1f22398a24f4c19e0a08d0dd23e3d782c1a5661"
        },
        {
          "algorithm": "SHA1",
          "checksumValue": "979c29303f054fa86d2aca51318a4698a32b1736"
        }
      ],
      "licenseConcluded": "NOASSERTION",
      "licenseInfoInFiles": [
        "NOASSERTION"
      ],
      "copyrightText": "NOASSERTION"
    },
    {
      "fileName": "./.git/description",
      "SPDXID": "SPDXRef-File--.git-description-9635F1B7E12C045212819DD934D809EF07EFA2F4",
      "checksums": [
        {
          "algorithm": "SHA256",
          "checksumValue": "85ab6c163d43a17ea9cf7788308bca1466f1b0a8d1cc92e26e9bf63da4062aee"
        },
        {
          "algorithm": "SHA1",
          "checksumValue": "9635f1b7e12c045212819dd934d809ef07efa2f4"
        }
      ],
      "licenseConcluded": "NOASSERTION",
      "licenseInfoInFiles": [
        "NOASSERTION"
      ],
      "copyrightText": "NOASSERTION"
    },
    {
      "fileName": "./.git/logs/refs/heads/main",
      "SPDXID": "SPDXRef-File--.git-logs-refs-heads-main-E57AE2B1CB13E67D31674E9919FB1888E9A543AB",
      "checksums": [
        {
          "algorithm": "SHA256",
          "checksumValue": "7f5b66146e7134550dea86efdc7863c532af26c48224070e1ac52259c004a384"
        },
        {
          "algorithm": "SHA1",
          "checksumValue": "e57ae2b1cb13e67d31674e9919fb1888e9a543ab"
        }
      ],
      "licenseConcluded": "NOASSERTION",
      "licenseInfoInFiles": [
        "NOASSERTION"
      ],
      "copyrightText": "NOASSERTION"
    },
    {
      "fileName": "./.git/hooks/applypatch-msg.sample",
      "SPDXID": "SPDXRef-File--.git-hooks-applypatch-msg.sample-4DE88EB95A5E93FD27E78B5FB3B5231A8D8917DD",
      "checksums": [
        {
          "algorithm": "SHA256",
          "checksumValue": "0223497a0b8b033aa58a3a521b8629869386cf7ab0e2f101963d328aa62193f7"
        },
        {
          "algorithm": "SHA1",
          "checksumValue": "4de88eb95a5e93fd27e78b5fb3b5231a8d8917dd"
        }
      ],
      "licenseConcluded": "NOASSERTION",
      "licenseInfoInFiles": [
        "NOASSERTION"
      ],
      "copyrightText": "NOASSERTION"
    },
    {
      "fileName": "./.git/objects/49/4e822575e06294c19fd2528fdeec70fe2640fa",
      "SPDXID": "SPDXRef-File--.git-objects-49-4e822575e06294c19fd2528fdeec70fe2640fa-3F80EAF937EE001239297DB2D6144FA1F3DBF4DF",
      "checksums": [
        {
          "algorithm": "SHA256",
          "checksumValue": "14ae8867057b1c9b1a2b8ea9ad3b4a996049b2a354f7b9ad7589d237c96d1cb8"
        },
        {
          "algorithm": "SHA1",
          "checksumValue": "3f80eaf937ee001239297db2d6144fa1f3dbf4df"
        }
      ],
      "licenseConcluded": "NOASSERTION",
      "licenseInfoInFiles": [
        "NOASSERTION"
      ],
      "copyrightText": "NOASSERTION"
    },
    {
      "fileName": "./.git/objects/14/13425aa5d689bb0afcdbbc44e73b905c054b56",
      "SPDXID": "SPDXRef-File--.git-objects-14-13425aa5d689bb0afcdbbc44e73b905c054b56-5B88DEF4B6E204890F4BF4120CE31B5F9623C561",
      "checksums": [
        {
          "algorithm": "SHA256",
          "checksumValue": "e89f874a2158f8bff5915f5ca2ed43fb91f399bf07a29107f920ec0691be2bc3"
        },
        {
          "algorithm": "SHA1",
          "checksumValue": "5b88def4b6e204890f4bf4120ce31b5f9623c561"
        }
      ],
      "licenseConcluded": "NOASSERTION",
      "licenseInfoInFiles": [
        "NOASSERTION"
      ],
      "copyrightText": "NOASSERTION"
    },
    {
      "fileName": "./.git/objects/b4/280455fedeb9b484f864615fd6f04d8c2697a3",
      "SPDXID": "SPDXRef-File--.git-objects-b4-280455fedeb9b484f864615fd6f04d8c2697a3-266DB6DF41080CC0D5225C22770170877604E1AD",
      "checksums": [
        {
          "algorithm": "SHA256",
          "checksumValue": "98b0e0e2a862ffd9a12212e80869bcf907b162df430f9c9dd258ae47ef72b0f8"
        },
        {
          "algorithm": "SHA1",
          "checksumValue": "266db6df41080cc0d5225c22770170877604e1ad"
        }
      ],
      "licenseConcluded": "NOASSERTION",
      "licenseInfoInFiles": [
        "NOASSERTION"
      ],
      "copyrightText": "NOASSERTION"
    },
    {
      "fileName": "./.git/objects/9b/810333862d281f78afdc06c0611ad3c5218cd1",
      "SPDXID": "SPDXRef-File--.git-objects-9b-810333862d281f78afdc06c0611ad3c5218cd1-D084F3E21112B7CBAF9AFFB8ADB210F5CE7E58AA",
      "checksums": [
        {
          "algorithm": "SHA256",
          "checksumValue": "03a41e0f35b817e2170315c49c7d78d7160d1bfa38160ca19590a5c8d7b6e1f2"
        },
        {
          "algorithm": "SHA1",
          "checksumValue": "d084f3e21112b7cbaf9affb8adb210f5ce7e58aa"
        }
      ],
      "licenseConcluded": "NOASSERTION",
      "licenseInfoInFiles": [
        "NOASSERTION"
      ],
      "copyrightText": "NOASSERTION"
    },
    {
      "fileName": "./.git/refs/heads/main",
      "SPDXID": "SPDXRef-File--.git-refs-heads-main-CE0CCD25A3E42BC85D151F5EF8B90425B8C4C98B",
      "checksums": [
        {
          "algorithm": "SHA256",
          "checksumValue": "678162f234c69859891fe9c7cb911e02f8d08cb395b6e98bd803b578b2b9e486"
        },
        {
          "algorithm": "SHA1",
          "checksumValue": "ce0ccd25a3e42bc85d151f5ef8b90425b8c4c98b"
        }
      ],
      "licenseConcluded": "NOASSERTION",
      "licenseInfoInFiles": [
        "NOASSERTION"
      ],
      "copyrightText": "NOASSERTION"
    },
    {
      "fileName": "./LICENSE",
      "SPDXID": "SPDXRef-File--LICENSE-CCB1CD8DEB427328C3688BD435FED73FE282D9B9",
      "checksums": [
        {
          "algorithm": "SHA256",
          "checksumValue": "b8a9b3a146c1642af265526dca7fc49e5e22f74c499e6ef8abcf59414a51b3af"
        },
        {
          "algorithm": "SHA1",
          "checksumValue": "ccb1cd8deb427328c3688bd435fed73fe282d9b9"
        }
      ],
      "licenseConcluded": "NOASSERTION",
      "licenseInfoInFiles": [
        "NOASSERTION"
      ],
      "copyrightText": "NOASSERTION"
    },
    {
      "fileName": "./README.md",
      "SPDXID": "SPDXRef-File--README.md-D31344FBD1FE6377A179450951F836D56963A8EC",
      "checksums": [
        {
          "algorithm": "SHA256",
          "checksumValue": "1c03bd8031d0da05e3391b695983c4b787349d54be517109a6d8fef940bbfab6"
        },
        {
          "algorithm": "SHA1",
          "checksumValue": "d31344fbd1fe6377a179450951f836d56963a8ec"
        }
      ],
      "licenseConcluded": "NOASSERTION",
      "licenseInfoInFiles": [
        "NOASSERTION"
      ],
      "copyrightText": "NOASSERTION"
    },
    {
      "fileName": "./SECURITY.md",
      "SPDXID": "SPDXRef-File--SECURITY.md-3D8AFF1A95C6DE3B2682B69A6B788D52D7C42B5D",
      "checksums": [
        {
          "algorithm": "SHA256",
          "checksumValue": "98c2e8bb45b2815eb6fb889afca45bff7b0a5299cefdbe706a0c4299d578da2c"
        },
        {
          "algorithm": "SHA1",
          "checksumValue": "3d8aff1a95c6de3b2682b69a6b788d52d7c42b5d"
        }
      ],
      "licenseConcluded": "NOASSERTION",
      "licenseInfoInFiles": [
        "NOASSERTION"
      ],
      "copyrightText": "NOASSERTION"
    },
    {
      "fileName": "./.git/HEAD",
      "SPDXID": "SPDXRef-File--.git-HEAD-9F1DF7EEA4156BE8A871C292B549B3325E425AA2",
      "checksums": [
        {
          "algorithm": "SHA256",
          "checksumValue": "28d25bf82af4c0e2b72f50959b2beb859e3e60b9630a5e8c603dad4ddb2b6e80"
        },
        {
          "algorithm": "SHA1",
          "checksumValue": "9f1df7eea4156be8a871c292b549b3325e425aa2"
        }
      ],
      "licenseConcluded": "NOASSERTION",
      "licenseInfoInFiles": [
        "NOASSERTION"
      ],
      "copyrightText": "NOASSERTION"
    },
    {
      "fileName": "./.git/hooks/post-update.sample",
      "SPDXID": "SPDXRef-File--.git-hooks-post-update.sample-B614C2F63DA7DCA9F1DB2E7ADE61EF30448FC96C",
      "checksums": [
        {
          "algorithm": "SHA256",
          "checksumValue": "81765af2daef323061dcbc5e61fc16481cb74b3bac9ad8a174b186523586f6c5"
        },
        {
          "algorithm": "SHA1",
          "checksumValue": "b614c2f63da7dca9f1db2e7ade61ef30448fc96c"
        }
      ],
      "licenseConcluded": "NOASSERTION",
      "licenseInfoInFiles": [
        "NOASSERTION"
      ],
      "copyrightText": "NOASSERTION"
    },
    {
      "fileName": "./.git/hooks/push-to-checkout.sample",
      "SPDXID": "SPDXRef-File--.git-hooks-push-to-checkout.sample-508240328C8B55F8157C93C43BF5E291E5D2FBCB",
      "checksums": [
        {
          "algorithm": "SHA256",
          "checksumValue": "a53d0741798b287c6dd7afa64aee473f305e65d3f49463bb9d7408ec3b12bf5f"
        },
        {
          "algorithm": "SHA1",
          "checksumValue": "508240328c8b55f8157c93c43bf5e291e5d2fbcb"
        }
      ],
      "licenseConcluded": "NOASSERTION",
      "licenseInfoInFiles": [
        "NOASSERTION"
      ],
      "copyrightText": "NOASSERTION"
    },
    {
      "fileName": "./.git/objects/bc/c014f3590d2a105d7c5e787f28faea8fe0ae9f",
      "SPDXID": "SPDXRef-File--.git-objects-bc-c014f3590d2a105d7c5e787f28faea8fe0ae9f-82709D9063BDFD63F8DE3F045EBF6E20291BC153",
      "checksums": [
        {
          "algorithm": "SHA256",
          "checksumValue": "cfdcf4b1bc1e7a40ac82b67ad42574d94250b5f0cd207a60bbe0a4560855e833"
        },
        {
          "algorithm": "SHA1",
          "checksumValue": "82709d9063bdfd63f8de3f045ebf6e20291bc153"
        }
      ],
      "licenseConcluded": "NOASSERTION",
      "licenseInfoInFiles": [
        "NOASSERTION"
      ],
      "copyrightText": "NOASSERTION"
    },
    {
      "fileName": "./.git/objects/24/8d148f1e664d1bad95fb5503bbbe4909b2f704",
      "SPDXID": "SPDXRef-File--.git-objects-24-8d148f1e664d1bad95fb5503bbbe4909b2f704-CE8E9B282B287630E1A3B661D343CC1761E5C91F",
      "checksums": [
        {
          "algorithm": "SHA256",
          "checksumValue": "8bb0d124075896e67b12258a3006fd512d05039fb53ab2ec9ec428c83b51207f"
        },
        {
          "algorithm": "SHA1",
          "checksumValue": "ce8e9b282b287630e1a3b661d343cc1761e5c91f"
        }
      ],
      "licenseConcluded": "NOASSERTION",
      "licenseInfoInFiles": [
        "NOASSERTION"
      ],
      "copyrightText": "NOASSERTION"
    },
    {
      "fileName": "./.git/objects/52/b88c54e9d48784be1ca888f7629f03a7a1f273",
      "SPDXID": "SPDXRef-File--.git-objects-52-b88c54e9d48784be1ca888f7629f03a7a1f273-B9BD5A49CD9630338F976073319D82D2B5C2D8BE",
      "checksums": [
        {
          "algorithm": "SHA256",
          "checksumValue": "10ddb47fd121cf710b22816c3128e0b66827453a94bd8b367b0ee4df237c7ae9"
        },
        {
          "algorithm": "SHA1",
          "checksumValue": "b9bd5a49cd9630338f976073319d82d2b5c2d8be"
        }
      ],
      "licenseConcluded": "NOASSERTION",
      "licenseInfoInFiles": [
        "NOASSERTION"
      ],
      "copyrightText": "NOASSERTION"
    },
    {
      "fileName": "./.git/objects/a3/fe7b7f7ddecab6a6892f767505b5173d512f21",
      "SPDXID": "SPDXRef-File--.git-objects-a3-fe7b7f7ddecab6a6892f767505b5173d512f21-ED1D0FC2AF89B2B18F8DD7FA2FC26B0EC77E6154",
      "checksums": [
        {
          "algorithm": "SHA256",
          "checksumValue": "9a1382f56d120f24305d95d2e53efd8278aa5a37600d86b25acac024ec62bf3f"
        },
        {
          "algorithm": "SHA1",
          "checksumValue": "ed1d0fc2af89b2b18f8dd7fa2fc26b0ec77e6154"
        }
      ],
      "licenseConcluded": "NOASSERTION",
      "licenseInfoInFiles": [
        "NOASSERTION"
      ],
      "copyrightText": "NOASSERTION"
    },
    {
      "fileName": "./src/placeholder.txt",
      "SPDXID": "SPDXRef-File--src-placeholder.txt-DA39A3EE5E6B4B0D3255BFEF95601890AFD80709",
      "checksums": [
        {
          "algorithm": "SHA256",
          "checksumValue": "e3b0c44298fc1c149afbf4c8996fb92427ae41e4649b934ca495991b7852b855"
        },
        {
          "algorithm": "SHA1",
          "checksumValue": "da39a3ee5e6b4b0d3255bfef95601890afd80709"
        }
      ],
      "licenseConcluded": "NOASSERTION",
      "licenseInfoInFiles": [
        "NOASSERTION"
      ],
      "copyrightText": "NOASSERTION"
    },
    {
      "fileName": "./structure.txt",
      "SPDXID": "SPDXRef-File--structure.txt-A6AE9FEAC1FD1341030760ACCD8C74299F88FEAA",
      "checksums": [
        {
          "algorithm": "SHA256",
          "checksumValue": "07203555e3d2e77fae95fd91618293207bd86fb95012ba4832cf53571099451e"
        },
        {
          "algorithm": "SHA1",
          "checksumValue": "a6ae9feac1fd1341030760accd8c74299f88feaa"
        }
      ],
      "licenseConcluded": "NOASSERTION",
      "licenseInfoInFiles": [
        "NOASSERTION"
      ],
      "copyrightText": "NOASSERTION"
    },
    {
      "fileName": "./humans.txt",
      "SPDXID": "SPDXRef-File--humans.txt-83A9212D6BCD8F59891AACFBFA02E9DE5CD7344C",
      "checksums": [
        {
          "algorithm": "SHA256",
          "checksumValue": "b09704a6d29215fabafbc6f54fbc6f85c0a468de0e251a1b49f9263c5b66765d"
        },
        {
          "algorithm": "SHA1",
          "checksumValue": "83a9212d6bcd8f59891aacfbfa02e9de5cd7344c"
        }
      ],
      "licenseConcluded": "NOASSERTION",
      "licenseInfoInFiles": [
        "NOASSERTION"
      ],
      "copyrightText": "NOASSERTION"
    },
    {
      "fileName": "./.git/config",
      "SPDXID": "SPDXRef-File--.git-config-C75DA3BF7EEB31C0EF0D980ED3353D15628C5C6C",
      "checksums": [
        {
          "algorithm": "SHA256",
          "checksumValue": "6cf237d3720f34911092c70a9a1aafc8f63210d8f3e708863091c90cf4f41d1c"
        },
        {
          "algorithm": "SHA1",
          "checksumValue": "c75da3bf7eeb31c0ef0d980ed3353d15628c5c6c"
        }
      ],
      "licenseConcluded": "NOASSERTION",
      "licenseInfoInFiles": [
        "NOASSERTION"
      ],
      "copyrightText": "NOASSERTION"
    },
    {
      "fileName": "./.git/hooks/commit-msg.sample",
      "SPDXID": "SPDXRef-File--.git-hooks-commit-msg.sample-EE1ED5AAD98A435F2020B6DE35C173B75D9AFFAC",
      "checksums": [
        {
          "algorithm": "SHA256",
          "checksumValue": "1f74d5e9292979b573ebd59741d46cb93ff391acdd083d340b94370753d92437"
        },
        {
          "algorithm": "SHA1",
          "checksumValue": "ee1ed5aad98a435f2020b6de35c173b75d9affac"
        }
      ],
      "licenseConcluded": "NOASSERTION",
      "licenseInfoInFiles": [
        "NOASSERTION"
      ],
      "copyrightText": "NOASSERTION"
    },
    {
      "fileName": "./.git/hooks/fsmonitor-watchman.sample",
      "SPDXID": "SPDXRef-File--.git-hooks-fsmonitor-watchman.sample-0EC0EC9AC11111433D17EA79E0AE8CEC650DCFA4",
      "checksums": [
        {
          "algorithm": "SHA256",
          "checksumValue": "e0549964e93897b519bd8e333c037e51fff0f88ba13e086a331592bf801fa1d0"
        },
        {
          "algorithm": "SHA1",
          "checksumValue": "0ec0ec9ac11111433d17ea79e0ae8cec650dcfa4"
        }
      ],
      "licenseConcluded": "NOASSERTION",
      "licenseInfoInFiles": [
        "NOASSERTION"
      ],
      "copyrightText": "NOASSERTION"
    },
    {
      "fileName": "./.git/objects/7a/016aaebe8a2269277ca58e4fb7de087f61ddf4",
      "SPDXID": "SPDXRef-File--.git-objects-7a-016aaebe8a2269277ca58e4fb7de087f61ddf4-041204BD1789DB3F26AA159CB42E1A7723BAAB62",
      "checksums": [
        {
          "algorithm": "SHA256",
          "checksumValue": "698babfb13caca7e9100ecd5f237ca14e75371ffaef38da23597f68dacf7406c"
        },
        {
          "algorithm": "SHA1",
          "checksumValue": "041204bd1789db3f26aa159cb42e1a7723baab62"
        }
      ],
      "licenseConcluded": "NOASSERTION",
      "licenseInfoInFiles": [
        "NOASSERTION"
      ],
      "copyrightText": "NOASSERTION"
    },
    {
      "fileName": "./.git/objects/e3/f3fbcef37ef9339e0a301ace87a3a034a279a2",
      "SPDXID": "SPDXRef-File--.git-objects-e3-f3fbcef37ef9339e0a301ace87a3a034a279a2-619CC858134AD5C403FB041B04CE1264C7AC3454",
      "checksums": [
        {
          "algorithm": "SHA256",
          "checksumValue": "51788b50c92582acf9904a5dab0b103b9c312127ba5a823e2167966fda42630b"
        },
        {
          "algorithm": "SHA1",
          "checksumValue": "619cc858134ad5c403fb041b04ce1264c7ac3454"
        }
      ],
      "licenseConcluded": "NOASSERTION",
      "licenseInfoInFiles": [
        "NOASSERTION"
      ],
      "copyrightText": "NOASSERTION"
    },
    {
      "fileName": "./.git/objects/b2/ba6ffd4d5f12c5b3d494ddb389a2ff0e6ff93d",
      "SPDXID": "SPDXRef-File--.git-objects-b2-ba6ffd4d5f12c5b3d494ddb389a2ff0e6ff93d-14CC60B7A8373B95469993262E9831C9B6155BAC",
      "checksums": [
        {
          "algorithm": "SHA256",
          "checksumValue": "4ba3f10d0b7deb68cce62230aa56b758799ccd31b873ed9611e9891e00b88d9d"
        },
        {
          "algorithm": "SHA1",
          "checksumValue": "14cc60b7a8373b95469993262e9831c9b6155bac"
        }
      ],
      "licenseConcluded": "NOASSERTION",
      "licenseInfoInFiles": [
        "NOASSERTION"
      ],
      "copyrightText": "NOASSERTION"
    },
    {
      "fileName": "./.git/objects/3d/4650d31a118129fd78f8ce69a0c84b3c5cbebc",
      "SPDXID": "SPDXRef-File--.git-objects-3d-4650d31a118129fd78f8ce69a0c84b3c5cbebc-E6D2028A03275180C51B511DC903B12B7100C0D8",
      "checksums": [
        {
          "algorithm": "SHA256",
          "checksumValue": "962995e6f92234dcf6f8dd05967625a9836d055b608ce0ff886a65886d52a249"
        },
        {
          "algorithm": "SHA1",
          "checksumValue": "e6d2028a03275180c51b511dc903b12b7100c0d8"
        }
      ],
      "licenseConcluded": "NOASSERTION",
      "licenseInfoInFiles": [
        "NOASSERTION"
      ],
      "copyrightText": "NOASSERTION"
    },
    {
      "fileName": "./tools/placeholder.txt",
      "SPDXID": "SPDXRef-File--tools-placeholder.txt-DA39A3EE5E6B4B0D3255BFEF95601890AFD80709",
      "checksums": [
        {
          "algorithm": "SHA256",
          "checksumValue": "e3b0c44298fc1c149afbf4c8996fb92427ae41e4649b934ca495991b7852b855"
        },
        {
          "algorithm": "SHA1",
          "checksumValue": "da39a3ee5e6b4b0d3255bfef95601890afd80709"
        }
      ],
      "licenseConcluded": "NOASSERTION",
      "licenseInfoInFiles": [
        "NOASSERTION"
      ],
      "copyrightText": "NOASSERTION"
    },
    {
      "fileName": "./content_summary.txt",
      "SPDXID": "SPDXRef-File--content-summary.txt-8BA330F2E37F864A5699ECD06638D13E80E1D5C9",
      "checksums": [
        {
          "algorithm": "SHA256",
          "checksumValue": "5934492e9d84d728e539d3a87ff704e2339d2540b540c39ed2646cb28a4b851e"
        },
        {
          "algorithm": "SHA1",
          "checksumValue": "8ba330f2e37f864a5699ecd06638d13e80e1d5c9"
        }
      ],
      "licenseConcluded": "NOASSERTION",
      "licenseInfoInFiles": [
        "NOASSERTION"
      ],
      "copyrightText": "NOASSERTION"
    },
    {
      "fileName": "./.git/logs/HEAD",
      "SPDXID": "SPDXRef-File--.git-logs-HEAD-D533CCD157E1F03C2430C532AFAAB6E00F9D7D41",
      "checksums": [
        {
          "algorithm": "SHA256",
          "checksumValue": "0e409ddbd01bd5116dc15bef23721bbf7478d9c1d38504675ad48e8cd5363bfc"
        },
        {
          "algorithm": "SHA1",
          "checksumValue": "d533ccd157e1f03c2430c532afaab6e00f9d7d41"
        }
      ],
      "licenseConcluded": "NOASSERTION",
      "licenseInfoInFiles": [
        "NOASSERTION"
      ],
      "copyrightText": "NOASSERTION"
    },
    {
      "fileName": "./.git/hooks/pre-applypatch.sample",
      "SPDXID": "SPDXRef-File--.git-hooks-pre-applypatch.sample-F208287C1A92525DE9F5462E905A9D31DE1E2D75",
      "checksums": [
        {
          "algorithm": "SHA256",
          "checksumValue": "e15c5b469ea3e0a695bea6f2c82bcf8e62821074939ddd85b77e0007ff165475"
        },
        {
          "algorithm": "SHA1",
          "checksumValue": "f208287c1a92525de9f5462e905a9d31de1e2d75"
        }
      ],
      "licenseConcluded": "NOASSERTION",
      "licenseInfoInFiles": [
        "NOASSERTION"
      ],
      "copyrightText": "NOASSERTION"
    },
    {
      "fileName": "./.git/hooks/pre-receive.sample",
      "SPDXID": "SPDXRef-File--.git-hooks-pre-receive.sample-705A17D259E7896F0082FE2E9F2C0C3B127BE5AC",
      "checksums": [
        {
          "algorithm": "SHA256",
          "checksumValue": "a4c3d2b9c7bb3fd8d1441c31bd4ee71a595d66b44fcf49ddb310252320169989"
        },
        {
          "algorithm": "SHA1",
          "checksumValue": "705a17d259e7896f0082fe2e9f2c0c3b127be5ac"
        }
      ],
      "licenseConcluded": "NOASSERTION",
      "licenseInfoInFiles": [
        "NOASSERTION"
      ],
      "copyrightText": "NOASSERTION"
    },
    {
      "fileName": "./.git/objects/d7/7f3615c991410c98cbbc5f5dad1418a4dd4183",
      "SPDXID": "SPDXRef-File--.git-objects-d7-7f3615c991410c98cbbc5f5dad1418a4dd4183-680358C1B57D1A9882D01A828422106AE7F0F0AA",
      "checksums": [
        {
          "algorithm": "SHA256",
          "checksumValue": "8d53717fec44a63bedf9187f7c714b9d3529ec66e8c4bd6e7ff936ed2dac7a97"
        },
        {
          "algorithm": "SHA1",
          "checksumValue": "680358c1b57d1a9882d01a828422106ae7f0f0aa"
        }
      ],
      "licenseConcluded": "NOASSERTION",
      "licenseInfoInFiles": [
        "NOASSERTION"
      ],
      "copyrightText": "NOASSERTION"
    },
    {
      "fileName": "./.git/objects/b6/9db7df872541ba3e24ad08e314e3f1fa541d29",
      "SPDXID": "SPDXRef-File--.git-objects-b6-9db7df872541ba3e24ad08e314e3f1fa541d29-9E4F8752746FD9C976C37D096AD6FCC40D82C881",
      "checksums": [
        {
          "algorithm": "SHA256",
          "checksumValue": "5f2d1f527be5acf641ca0959d1f4beeab23f8338310bbc135ba33bc307118042"
        },
        {
          "algorithm": "SHA1",
          "checksumValue": "9e4f8752746fd9c976c37d096ad6fcc40d82c881"
        }
      ],
      "licenseConcluded": "NOASSERTION",
      "licenseInfoInFiles": [
        "NOASSERTION"
      ],
      "copyrightText": "NOASSERTION"
    },
    {
      "fileName": "./.git/objects/97/8d0fd62365c7e3dfe7d8c10595846fe9fa5f43",
      "SPDXID": "SPDXRef-File--.git-objects-97-8d0fd62365c7e3dfe7d8c10595846fe9fa5f43-6D265BB7A39D487FAC0C5318CD7139E0B66C750C",
      "checksums": [
        {
          "algorithm": "SHA256",
          "checksumValue": "84dc6094578e8ad0452ef655908eb82dd3df735114d231552c50578342fb77c8"
        },
        {
          "algorithm": "SHA1",
          "checksumValue": "6d265bb7a39d487fac0c5318cd7139e0b66c750c"
        }
      ],
      "licenseConcluded": "NOASSERTION",
      "licenseInfoInFiles": [
        "NOASSERTION"
      ],
      "copyrightText": "NOASSERTION"
    },
    {
      "fileName": "./.git/info/exclude",
      "SPDXID": "SPDXRef-File--.git-info-exclude-C879DF015D97615050AFA7B9641E3352A1E701AC",
      "checksums": [
        {
          "algorithm": "SHA256",
          "checksumValue": "6671fe83b7a07c8932ee89164d1f2793b2318058eb8b98dc5c06ee0a5a3b0ec1"
        },
        {
          "algorithm": "SHA1",
          "checksumValue": "c879df015d97615050afa7b9641e3352a1e701ac"
        }
      ],
      "licenseConcluded": "NOASSERTION",
      "licenseInfoInFiles": [
        "NOASSERTION"
      ],
      "copyrightText": "NOASSERTION"
    },
    {
      "fileName": "./documentation/scorecard/placeholder.txt",
      "SPDXID": "SPDXRef-File--documentation-scorecard-placeholder.txt-DA39A3EE5E6B4B0D3255BFEF95601890AFD80709",
      "checksums": [
        {
          "algorithm": "SHA256",
          "checksumValue": "e3b0c44298fc1c149afbf4c8996fb92427ae41e4649b934ca495991b7852b855"
        },
        {
          "algorithm": "SHA1",
          "checksumValue": "da39a3ee5e6b4b0d3255bfef95601890afd80709"
        }
      ],
      "licenseConcluded": "NOASSERTION",
      "licenseInfoInFiles": [
        "NOASSERTION"
      ],
      "copyrightText": "NOASSERTION"
    },
    {
      "fileName": "./security.txt",
      "SPDXID": "SPDXRef-File--security.txt-BBD031D321B15F7AD5C366EAAF7ADB1B880F4A04",
      "checksums": [
        {
          "algorithm": "SHA256",
          "checksumValue": "88ca05309ac3e4acf0b5fd6be9ba0db19e5db459e50979cfc6c4c5ce0422aa9b"
        },
        {
          "algorithm": "SHA1",
          "checksumValue": "bbd031d321b15f7ad5c366eaaf7adb1b880f4a04"
        }
      ],
      "licenseConcluded": "NOASSERTION",
      "licenseInfoInFiles": [
        "NOASSERTION"
      ],
      "copyrightText": "NOASSERTION"
    },
    {
      "fileName": "./.build/placeholder.txt",
      "SPDXID": "SPDXRef-File--.build-placeholder.txt-DA39A3EE5E6B4B0D3255BFEF95601890AFD80709",
      "checksums": [
        {
          "algorithm": "SHA256",
          "checksumValue": "e3b0c44298fc1c149afbf4c8996fb92427ae41e4649b934ca495991b7852b855"
        },
        {
          "algorithm": "SHA1",
          "checksumValue": "da39a3ee5e6b4b0d3255bfef95601890afd80709"
        }
      ],
      "licenseConcluded": "NOASSERTION",
      "licenseInfoInFiles": [
        "NOASSERTION"
      ],
      "copyrightText": "NOASSERTION"
    },
    {
      "fileName": "./SECURITY.rst",
      "SPDXID": "SPDXRef-File--SECURITY.rst-0777C609FD438F9381737B0852F7961BC9C580C0",
      "checksums": [
        {
          "algorithm": "SHA256",
          "checksumValue": "d2ff586970caee9fa140d4f27ba4f51d0d0ef6b22297c20dd14a9c5a6bbfacb8"
        },
        {
          "algorithm": "SHA1",
          "checksumValue": "0777c609fd438f9381737b0852f7961bc9c580c0"
        }
      ],
      "licenseConcluded": "NOASSERTION",
      "licenseInfoInFiles": [
        "NOASSERTION"
      ],
      "copyrightText": "NOASSERTION"
    },
    {
      "fileName": "./res/placeholder.txt",
      "SPDXID": "SPDXRef-File--res-placeholder.txt-DA39A3EE5E6B4B0D3255BFEF95601890AFD80709",
      "checksums": [
        {
          "algorithm": "SHA256",
          "checksumValue": "e3b0c44298fc1c149afbf4c8996fb92427ae41e4649b934ca495991b7852b855"
        },
        {
          "algorithm": "SHA1",
          "checksumValue": "da39a3ee5e6b4b0d3255bfef95601890afd80709"
        }
      ],
      "licenseConcluded": "NOASSERTION",
      "licenseInfoInFiles": [
        "NOASSERTION"
      ],
      "copyrightText": "NOASSERTION"
    },
    {
      "fileName": "./.git/logs/refs/remotes/origin/master",
      "SPDXID": "SPDXRef-File--.git-logs-refs-remotes-origin-master-79BC8DFB1C0CD43F1CB2DC3DE3C9BBED8FD4A01C",
      "checksums": [
        {
          "algorithm": "SHA256",
          "checksumValue": "b67bf9b5c6ece56526d500ac20ef7d73580752c2078a56c46d04a963879177cd"
        },
        {
          "algorithm": "SHA1",
          "checksumValue": "79bc8dfb1c0cd43f1cb2dc3de3c9bbed8fd4a01c"
        }
      ],
      "licenseConcluded": "NOASSERTION",
      "licenseInfoInFiles": [
        "NOASSERTION"
      ],
      "copyrightText": "NOASSERTION"
    },
    {
      "fileName": "./.git/hooks/pre-merge-commit.sample",
      "SPDXID": "SPDXRef-File--.git-hooks-pre-merge-commit.sample-04C64E58BC25C149482ED45DBD79E40EFFB89EB7",
      "checksums": [
        {
          "algorithm": "SHA256",
          "checksumValue": "d3825a70337940ebbd0a5c072984e13245920cdf8898bd225c8d27a6dfc9cb53"
        },
        {
          "algorithm": "SHA1",
          "checksumValue": "04c64e58bc25c149482ed45dbd79e40effb89eb7"
        }
      ],
      "licenseConcluded": "NOASSERTION",
      "licenseInfoInFiles": [
        "NOASSERTION"
      ],
      "copyrightText": "NOASSERTION"
    },
    {
      "fileName": "./.git/objects/f5/9bf787d4e3d1fcd2f70bcd9928bf9cb7d48515",
      "SPDXID": "SPDXRef-File--.git-objects-f5-9bf787d4e3d1fcd2f70bcd9928bf9cb7d48515-742470D7FCAA4DA03D1DBA6EE7AB11027481DDD3",
      "checksums": [
        {
          "algorithm": "SHA256",
          "checksumValue": "a3eb5fdf4db5dacac3c50dcfbc2ac83c6f7a1acf3a99494ccdc2fdb0a8a13437"
        },
        {
          "algorithm": "SHA1",
          "checksumValue": "742470d7fcaa4da03d1dba6ee7ab11027481ddd3"
        }
      ],
      "licenseConcluded": "NOASSERTION",
      "licenseInfoInFiles": [
        "NOASSERTION"
      ],
      "copyrightText": "NOASSERTION"
    },
    {
      "fileName": "./.git/objects/2e/79f59f1c4a5a7ac24bf521c21de8084309335e",
      "SPDXID": "SPDXRef-File--.git-objects-2e-79f59f1c4a5a7ac24bf521c21de8084309335e-4A3D6861DFF93FB85844A3AC190332C16AF6489B",
      "checksums": [
        {
          "algorithm": "SHA256",
          "checksumValue": "0c9f03b86c0773b4257b970eac26f53acd73dd3bd7b673c07eca8b112ca4552c"
        },
        {
          "algorithm": "SHA1",
          "checksumValue": "4a3d6861dff93fb85844a3ac190332c16af6489b"
        }
      ],
      "licenseConcluded": "NOASSERTION",
      "licenseInfoInFiles": [
        "NOASSERTION"
      ],
      "copyrightText": "NOASSERTION"
    },
    {
      "fileName": "./.git/objects/fe/dc2b3aa6d09207e908ba27df2cb9bf4e5552c2",
      "SPDXID": "SPDXRef-File--.git-objects-fe-dc2b3aa6d09207e908ba27df2cb9bf4e5552c2-53177E8E09EFCDD09DFD4B504FE1B1DE32C63F50",
      "checksums": [
        {
          "algorithm": "SHA256",
          "checksumValue": "518df619752fc97f55994bb5d56e59551fdafb104144631e5612235db91e5df6"
        },
        {
          "algorithm": "SHA1",
          "checksumValue": "53177e8e09efcdd09dfd4b504fe1b1de32c63f50"
        }
      ],
      "licenseConcluded": "NOASSERTION",
      "licenseInfoInFiles": [
        "NOASSERTION"
      ],
      "copyrightText": "NOASSERTION"
    },
    {
      "fileName": "./.git/objects/0e/402a09854f11310f54615c7951f868a1b92fbd",
      "SPDXID": "SPDXRef-File--.git-objects-0e-402a09854f11310f54615c7951f868a1b92fbd-EA17AF03152D3BD1A819492C9E1B68808D99D579",
      "checksums": [
        {
          "algorithm": "SHA256",
          "checksumValue": "80b937062f00fd8e6403d730b02e3f4071630ecc93993584a6d9f25277722069"
        },
        {
          "algorithm": "SHA1",
          "checksumValue": "ea17af03152d3bd1a819492c9e1b68808d99d579"
        }
      ],
      "licenseConcluded": "NOASSERTION",
      "licenseInfoInFiles": [
        "NOASSERTION"
      ],
      "copyrightText": "NOASSERTION"
    },
    {
      "fileName": "./.git/refs/remotes/origin/master",
      "SPDXID": "SPDXRef-File--.git-refs-remotes-origin-master-1B61110C64F686DF26ECAD1C020597570144764E",
      "checksums": [
        {
          "algorithm": "SHA256",
          "checksumValue": "7855a49a0920481801e2416a19882eaad15e6bfcc5068275036e9ce7c6570f54"
        },
        {
          "algorithm": "SHA1",
          "checksumValue": "1b61110c64f686df26ecad1c020597570144764e"
        }
      ],
      "licenseConcluded": "NOASSERTION",
      "licenseInfoInFiles": [
        "NOASSERTION"
      ],
      "copyrightText": "NOASSERTION"
    },
    {
      "fileName": "./example/placeholder.txt",
      "SPDXID": "SPDXRef-File--example-placeholder.txt-DA39A3EE5E6B4B0D3255BFEF95601890AFD80709",
      "checksums": [
        {
          "algorithm": "SHA256",
          "checksumValue": "e3b0c44298fc1c149afbf4c8996fb92427ae41e4649b934ca495991b7852b855"
        },
        {
          "algorithm": "SHA1",
          "checksumValue": "da39a3ee5e6b4b0d3255bfef95601890afd80709"
        }
      ],
      "licenseConcluded": "NOASSERTION",
      "licenseInfoInFiles": [
        "NOASSERTION"
      ],
      "copyrightText": "NOASSERTION"
    },
    {
      "fileName": "./.git/logs/refs/remotes/origin/main",
      "SPDXID": "SPDXRef-File--.git-logs-refs-remotes-origin-main-1E85F8F95FE30F8CE656CBF6D74525A98BB26286",
      "checksums": [
        {
          "algorithm": "SHA256",
          "checksumValue": "95df8a3f3866be81d52b9d517ae3d36f265c870a59a13e6c3b314a70a1530974"
        },
        {
          "algorithm": "SHA1",
          "checksumValue": "1e85f8f95fe30f8ce656cbf6d74525a98bb26286"
        }
      ],
      "licenseConcluded": "NOASSERTION",
      "licenseInfoInFiles": [
        "NOASSERTION"
      ],
      "copyrightText": "NOASSERTION"
    },
    {
      "fileName": "./.git/hooks/pre-push.sample",
      "SPDXID": "SPDXRef-File--.git-hooks-pre-push.sample-A599B773B930CA83DBC3A5C7C13059AC4A6EAEDC",
      "checksums": [
        {
          "algorithm": "SHA256",
          "checksumValue": "ecce9c7e04d3f5dd9d8ada81753dd1d549a9634b26770042b58dda00217d086a"
        },
        {
          "algorithm": "SHA1",
          "checksumValue": "a599b773b930ca83dbc3a5c7c13059ac4a6eaedc"
        }
      ],
      "licenseConcluded": "NOASSERTION",
      "licenseInfoInFiles": [
        "NOASSERTION"
      ],
      "copyrightText": "NOASSERTION"
    },
    {
      "fileName": "./.git/objects/b0/731e45528480e9f84cee0b216671ba4dc0bf0f",
      "SPDXID": "SPDXRef-File--.git-objects-b0-731e45528480e9f84cee0b216671ba4dc0bf0f-7BC24079DA243DE9517D13880354BFEBBBDE518C",
      "checksums": [
        {
          "algorithm": "SHA256",
          "checksumValue": "6d5a6341bd645f5f745ee1cdc47ecaf52f1a6c665f0b2bb8f7a8efaa4655db04"
        },
        {
          "algorithm": "SHA1",
          "checksumValue": "7bc24079da243de9517d13880354bfebbbde518c"
        }
      ],
      "licenseConcluded": "NOASSERTION",
      "licenseInfoInFiles": [
        "NOASSERTION"
      ],
      "copyrightText": "NOASSERTION"
    },
    {
      "fileName": "./.git/objects/e8/8b5628b8cf8eaffaf4801485d41c2217290937",
      "SPDXID": "SPDXRef-File--.git-objects-e8-8b5628b8cf8eaffaf4801485d41c2217290937-AF6DE2E2EF7F7DDE4C02297F22B71FF989147708",
      "checksums": [
        {
          "algorithm": "SHA256",
          "checksumValue": "1eadae407fcab5c2acb4535c12c002865c83ac7ddc05baf70836f4731e8a0166"
        },
        {
          "algorithm": "SHA1",
          "checksumValue": "af6de2e2ef7f7dde4c02297f22b71ff989147708"
        }
      ],
      "licenseConcluded": "NOASSERTION",
      "licenseInfoInFiles": [
        "NOASSERTION"
      ],
      "copyrightText": "NOASSERTION"
    },
    {
      "fileName": "./.git/objects/26/524072ddd94a21033ed2ae426d7ca9fccf9c80",
      "SPDXID": "SPDXRef-File--.git-objects-26-524072ddd94a21033ed2ae426d7ca9fccf9c80-DABFF57CA6901BC3AC7D1756448D8A5FE584BE07",
      "checksums": [
        {
          "algorithm": "SHA256",
          "checksumValue": "d8450ddd81d07488a32b359347c41afa2721daedf8596dd34a722f8f3b20ea71"
        },
        {
          "algorithm": "SHA1",
          "checksumValue": "dabff57ca6901bc3ac7d1756448d8a5fe584be07"
        }
      ],
      "licenseConcluded": "NOASSERTION",
      "licenseInfoInFiles": [
        "NOASSERTION"
      ],
      "copyrightText": "NOASSERTION"
    },
    {
      "fileName": "./.git/objects/5a/c727421ab03ef4eee1641c768ef3dacb01e5b1",
      "SPDXID": "SPDXRef-File--.git-objects-5a-c727421ab03ef4eee1641c768ef3dacb01e5b1-A41E9EFBB88E7F5359912831B9B2546FDC0A3C00",
      "checksums": [
        {
          "algorithm": "SHA256",
          "checksumValue": "60a0d0271941bb09df3cc59f9fac7294a4a0f9cd4d1a89edcf56672eb4653ae8"
        },
        {
          "algorithm": "SHA1",
          "checksumValue": "a41e9efbb88e7f5359912831b9b2546fdc0a3c00"
        }
      ],
      "licenseConcluded": "NOASSERTION",
      "licenseInfoInFiles": [
        "NOASSERTION"
      ],
      "copyrightText": "NOASSERTION"
    },
    {
      "fileName": "./.git/refs/remotes/origin/main",
      "SPDXID": "SPDXRef-File--.git-refs-remotes-origin-main-CE0CCD25A3E42BC85D151F5EF8B90425B8C4C98B",
      "checksums": [
        {
          "algorithm": "SHA256",
          "checksumValue": "678162f234c69859891fe9c7cb911e02f8d08cb395b6e98bd803b578b2b9e486"
        },
        {
          "algorithm": "SHA1",
          "checksumValue": "ce0ccd25a3e42bc85d151f5ef8b90425b8c4c98b"
        }
      ],
      "licenseConcluded": "NOASSERTION",
      "licenseInfoInFiles": [
        "NOASSERTION"
      ],
      "copyrightText": "NOASSERTION"
    },
    {
      "fileName": "./dataset/placeholder.txt",
      "SPDXID": "SPDXRef-File--dataset-placeholder.txt-DA39A3EE5E6B4B0D3255BFEF95601890AFD80709",
      "checksums": [
        {
          "algorithm": "SHA256",
          "checksumValue": "e3b0c44298fc1c149afbf4c8996fb92427ae41e4649b934ca495991b7852b855"
        },
        {
          "algorithm": "SHA1",
          "checksumValue": "da39a3ee5e6b4b0d3255bfef95601890afd80709"
        }
      ],
      "licenseConcluded": "NOASSERTION",
      "licenseInfoInFiles": [
        "NOASSERTION"
      ],
      "copyrightText": "NOASSERTION"
    },
    {
      "fileName": "./dep/placeholder.txt",
      "SPDXID": "SPDXRef-File--dep-placeholder.txt-DA39A3EE5E6B4B0D3255BFEF95601890AFD80709",
      "checksums": [
        {
          "algorithm": "SHA256",
          "checksumValue": "e3b0c44298fc1c149afbf4c8996fb92427ae41e4649b934ca495991b7852b855"
        },
        {
          "algorithm": "SHA1",
          "checksumValue": "da39a3ee5e6b4b0d3255bfef95601890afd80709"
        }
      ],
      "licenseConcluded": "NOASSERTION",
      "licenseInfoInFiles": [
        "NOASSERTION"
      ],
      "copyrightText": "NOASSERTION"
    },
    {
      "fileName": "./.git/index",
      "SPDXID": "SPDXRef-File--.git-index-D7499378DF956244438A1FE8F6422D802EB36BE1",
      "checksums": [
        {
          "algorithm": "SHA256",
          "checksumValue": "3d61b370da80dade83cc23cef5a0efd03fa79468a5e74a81cdef6b0acdfc374c"
        },
        {
          "algorithm": "SHA1",
          "checksumValue": "d7499378df956244438a1fe8f6422d802eb36be1"
        }
      ],
      "licenseConcluded": "NOASSERTION",
      "licenseInfoInFiles": [
        "NOASSERTION"
      ],
      "copyrightText": "NOASSERTION"
    },
    {
      "fileName": "./.git/hooks/update.sample",
      "SPDXID": "SPDXRef-File--.git-hooks-update.sample-730E6BD5225478BAB6147B7A62A6E2AE21D40507",
      "checksums": [
        {
          "algorithm": "SHA256",
          "checksumValue": "8d5f2fa83e103cf08b57eaa67521df9194f45cbdbcb37da52ad586097a14d106"
        },
        {
          "algorithm": "SHA1",
          "checksumValue": "730e6bd5225478bab6147b7a62a6e2ae21d40507"
        }
      ],
      "licenseConcluded": "NOASSERTION",
      "licenseInfoInFiles": [
        "NOASSERTION"
      ],
      "copyrightText": "NOASSERTION"
    },
    {
      "fileName": "./.git/hooks/pre-rebase.sample",
      "SPDXID": "SPDXRef-File--.git-hooks-pre-rebase.sample-288EFDC0027DB4CFD8B7C47C4AEDDBA09B6DED12",
      "checksums": [
        {
          "algorithm": "SHA256",
          "checksumValue": "4febce867790052338076f4e66cc47efb14879d18097d1d61c8261859eaaa7b3"
        },
        {
          "algorithm": "SHA1",
          "checksumValue": "288efdc0027db4cfd8b7c47c4aeddba09b6ded12"
        }
      ],
      "licenseConcluded": "NOASSERTION",
      "licenseInfoInFiles": [
        "NOASSERTION"
      ],
      "copyrightText": "NOASSERTION"
    },
    {
      "fileName": "./.git/objects/ba/f79e77adaaecebef4396d333891cba169274e9",
      "SPDXID": "SPDXRef-File--.git-objects-ba-f79e77adaaecebef4396d333891cba169274e9-A16DF4FEFDD7A2F6EDC6E105A586FFFE18135CFF",
      "checksums": [
        {
          "algorithm": "SHA256",
          "checksumValue": "a91b4a1d67531daf943d10fa45f95cb82bdd943894e192aa41745a3f0946db52"
        },
        {
          "algorithm": "SHA1",
          "checksumValue": "a16df4fefdd7a2f6edc6e105a586fffe18135cff"
        }
      ],
      "licenseConcluded": "NOASSERTION",
      "licenseInfoInFiles": [
        "NOASSERTION"
      ],
      "copyrightText": "NOASSERTION"
    },
    {
      "fileName": "./.git/objects/b6/7040b6079bf6dc5126e1bc1f24f6a2f47ee038",
      "SPDXID": "SPDXRef-File--.git-objects-b6-7040b6079bf6dc5126e1bc1f24f6a2f47ee038-D2185A065B7366B200FF1DB12E5B5E1EBB33E8C4",
      "checksums": [
        {
          "algorithm": "SHA256",
          "checksumValue": "02281fd2b601159f05a70bd5ca1715623027f8535fac07b636697531bdd54593"
        },
        {
          "algorithm": "SHA1",
          "checksumValue": "d2185a065b7366b200ff1db12e5b5e1ebb33e8c4"
        }
      ],
      "licenseConcluded": "NOASSERTION",
      "licenseInfoInFiles": [
        "NOASSERTION"
      ],
      "copyrightText": "NOASSERTION"
    },
    {
      "fileName": "./.git/objects/79/de816ef8069fc601a974b4aca7c4840f3feb96",
      "SPDXID": "SPDXRef-File--.git-objects-79-de816ef8069fc601a974b4aca7c4840f3feb96-0B5BE2BF94B9C05EE9F663A2A5CE5A8DD8FF640F",
      "checksums": [
        {
          "algorithm": "SHA256",
          "checksumValue": "4980163684137950df35708d935056627ac86ce68921c656452bcf65f5364973"
        },
        {
          "algorithm": "SHA1",
          "checksumValue": "0b5be2bf94b9c05ee9f663a2a5ce5a8dd8ff640f"
        }
      ],
      "licenseConcluded": "NOASSERTION",
      "licenseInfoInFiles": [
        "NOASSERTION"
      ],
      "copyrightText": "NOASSERTION"
    },
    {
      "fileName": "./.git/objects/e6/9de29bb2d1d6434b8b29ae775ad8c2e48c5391",
      "SPDXID": "SPDXRef-File--.git-objects-e6-9de29bb2d1d6434b8b29ae775ad8c2e48c5391-C2BAAE88D6364D878FD67E778C6A5D8306AD4AB0",
      "checksums": [
        {
          "algorithm": "SHA256",
          "checksumValue": "164c5fa8067facf1a43f09ce3d0e35ebf53a7f5723ecbf15a8667cfc53c26f6c"
        },
        {
          "algorithm": "SHA1",
          "checksumValue": "c2baae88d6364d878fd67e778c6a5d8306ad4ab0"
        }
      ],
      "licenseConcluded": "NOASSERTION",
      "licenseInfoInFiles": [
        "NOASSERTION"
      ],
      "copyrightText": "NOASSERTION"
    },
    {
      "fileName": "./documentation/robots.txt",
      "SPDXID": "SPDXRef-File--documentation-robots.txt-BB250BBB67AF9A669F63CF04F489C16C9C520C06",
      "checksums": [
        {
          "algorithm": "SHA256",
          "checksumValue": "3166162fdf7719d89d3e227d610f4e8f585ecb41b53d2a13e805e7741040f6bb"
        },
        {
          "algorithm": "SHA1",
          "checksumValue": "bb250bbb67af9a669f63cf04f489c16c9c520c06"
        }
      ],
      "licenseConcluded": "NOASSERTION",
      "licenseInfoInFiles": [
        "NOASSERTION"
      ],
      "copyrightText": "NOASSERTION"
    },
    {
      "fileName": "./robots.txt",
      "SPDXID": "SPDXRef-File--robots.txt-BB250BBB67AF9A669F63CF04F489C16C9C520C06",
      "checksums": [
        {
          "algorithm": "SHA256",
          "checksumValue": "3166162fdf7719d89d3e227d610f4e8f585ecb41b53d2a13e805e7741040f6bb"
        },
        {
          "algorithm": "SHA1",
          "checksumValue": "bb250bbb67af9a669f63cf04f489c16c9c520c06"
        }
      ],
      "licenseConcluded": "NOASSERTION",
      "licenseInfoInFiles": [
        "NOASSERTION"
      ],
      "copyrightText": "NOASSERTION"
    },
    {
      "fileName": "./.config/placeholder.txt",
      "SPDXID": "SPDXRef-File--.config-placeholder.txt-DA39A3EE5E6B4B0D3255BFEF95601890AFD80709",
      "checksums": [
        {
          "algorithm": "SHA256",
          "checksumValue": "e3b0c44298fc1c149afbf4c8996fb92427ae41e4649b934ca495991b7852b855"
        },
        {
          "algorithm": "SHA1",
          "checksumValue": "da39a3ee5e6b4b0d3255bfef95601890afd80709"
        }
      ],
      "licenseConcluded": "NOASSERTION",
      "licenseInfoInFiles": [
        "NOASSERTION"
      ],
      "copyrightText": "NOASSERTION"
    },
    {
      "fileName": "./.git/FETCH_HEAD",
      "SPDXID": "SPDXRef-File--.git-FETCH-HEAD-75B4E10B3E968C1E83E7CBF736D1C1837EC31521",
      "checksums": [
        {
          "algorithm": "SHA256",
          "checksumValue": "acaa181ee02c330d0944d685c612f535588700d39b9e52e8bad8b5959c228e88"
        },
        {
          "algorithm": "SHA1",
          "checksumValue": "75b4e10b3e968c1e83e7cbf736d1c1837ec31521"
        }
      ],
      "licenseConcluded": "NOASSERTION",
      "licenseInfoInFiles": [
        "NOASSERTION"
      ],
      "copyrightText": "NOASSERTION"
    },
    {
      "fileName": "./.git/hooks/prepare-commit-msg.sample",
      "SPDXID": "SPDXRef-File--.git-hooks-prepare-commit-msg.sample-2584806BA147152AE005CB675AA4F01D5D068456",
      "checksums": [
        {
          "algorithm": "SHA256",
          "checksumValue": "e9ddcaa4189fddd25ed97fc8c789eca7b6ca16390b2392ae3276f0c8e1aa4619"
        },
        {
          "algorithm": "SHA1",
          "checksumValue": "2584806ba147152ae005cb675aa4f01d5d068456"
        }
      ],
      "licenseConcluded": "NOASSERTION",
      "licenseInfoInFiles": [
        "NOASSERTION"
      ],
      "copyrightText": "NOASSERTION"
    },
    {
      "fileName": "./.git/hooks/pre-commit.sample",
      "SPDXID": "SPDXRef-File--.git-hooks-pre-commit.sample-A79D057388EE2C2FE6561D7697F1F5EFCFF96F23",
      "checksums": [
        {
          "algorithm": "SHA256",
          "checksumValue": "f9af7d95eb1231ecf2eba9770fedfa8d4797a12b02d7240e98d568201251244a"
        },
        {
          "algorithm": "SHA1",
          "checksumValue": "a79d057388ee2c2fe6561d7697f1f5efcff96f23"
        }
      ],
      "licenseConcluded": "NOASSERTION",
      "licenseInfoInFiles": [
        "NOASSERTION"
      ],
      "copyrightText": "NOASSERTION"
    },
    {
      "fileName": "./.git/objects/d4/3f7133d682a038f4c7b74b56896e1f629583de",
      "SPDXID": "SPDXRef-File--.git-objects-d4-3f7133d682a038f4c7b74b56896e1f629583de-90536D4E555A94B74AE702E474E5199E35C4B0D8",
      "checksums": [
        {
          "algorithm": "SHA256",
          "checksumValue": "30279512ecfd900e06a7f3a92bf06b3542a85c0866b7a1713d54af7ad7c39ef4"
        },
        {
          "algorithm": "SHA1",
          "checksumValue": "90536d4e555a94b74ae702e474e5199e35c4b0d8"
        }
      ],
      "licenseConcluded": "NOASSERTION",
      "licenseInfoInFiles": [
        "NOASSERTION"
      ],
      "copyrightText": "NOASSERTION"
    },
    {
      "fileName": "./.git/objects/36/4e0504a59c4800b07156f883d1df9740ba59e5",
      "SPDXID": "SPDXRef-File--.git-objects-36-4e0504a59c4800b07156f883d1df9740ba59e5-7641373D3CDFDB9C26AC440FD4078D1B78C2320F",
      "checksums": [
        {
          "algorithm": "SHA256",
          "checksumValue": "bc2edc2e9b1c773efdfd9a8d0e0f1699fe3900bb80836ba4de7fcf9ae4a8f673"
        },
        {
          "algorithm": "SHA1",
          "checksumValue": "7641373d3cdfdb9c26ac440fd4078d1b78c2320f"
        }
      ],
      "licenseConcluded": "NOASSERTION",
      "licenseInfoInFiles": [
        "NOASSERTION"
      ],
      "copyrightText": "NOASSERTION"
    },
    {
      "fileName": "./.git/objects/79/c360bfe928408181103ea797695a333f96fb85",
      "SPDXID": "SPDXRef-File--.git-objects-79-c360bfe928408181103ea797695a333f96fb85-48247395F31392DB7F37982F1D2B9C1C615B2BDA",
      "checksums": [
        {
          "algorithm": "SHA256",
          "checksumValue": "fc2dcba732280f9e76e1f4d7b6848275a66f2cb40720ec38e2738e7077835ae1"
        },
        {
          "algorithm": "SHA1",
          "checksumValue": "48247395f31392db7f37982f1d2b9c1c615b2bda"
        }
      ],
      "licenseConcluded": "NOASSERTION",
      "licenseInfoInFiles": [
        "NOASSERTION"
      ],
      "copyrightText": "NOASSERTION"
    },
    {
      "fileName": "./.git/objects/91/49c8837ba9af61ea155b1960dafb19667a05f5",
      "SPDXID": "SPDXRef-File--.git-objects-91-49c8837ba9af61ea155b1960dafb19667a05f5-38F40A955F591EE4AAA0E9AA46254A4DF505A184",
      "checksums": [
        {
          "algorithm": "SHA256",
          "checksumValue": "4d7bf6cc536df6be76908a3fb904510e7c4968a8ae2cc23abc8d62b7464ef2b5"
        },
        {
          "algorithm": "SHA1",
          "checksumValue": "38f40a955f591ee4aaa0e9aa46254a4df505a184"
        }
      ],
      "licenseConcluded": "NOASSERTION",
      "licenseInfoInFiles": [
        "NOASSERTION"
      ],
      "copyrightText": "NOASSERTION"
    },
    {
      "fileName": "./test/placeholder.txt",
      "SPDXID": "SPDXRef-File--test-placeholder.txt-DA39A3EE5E6B4B0D3255BFEF95601890AFD80709",
      "checksums": [
        {
          "algorithm": "SHA256",
          "checksumValue": "e3b0c44298fc1c149afbf4c8996fb92427ae41e4649b934ca495991b7852b855"
        },
        {
          "algorithm": "SHA1",
          "checksumValue": "da39a3ee5e6b4b0d3255bfef95601890afd80709"
        }
      ],
      "licenseConcluded": "NOASSERTION",
      "licenseInfoInFiles": [
        "NOASSERTION"
      ],
      "copyrightText": "NOASSERTION"
    }
  ],
  "packages": [
    {
      "name": "ndaal_public_analyse_open_source_contributions_dataset_linux_kernel_main",
      "SPDXID": "SPDXRef-RootPackage",
      "downloadLocation": "NOASSERTION",
      "packageVerificationCode": {
        "packageVerificationCodeValue": "d00fd054c3fb8cf1d302947bebf9c999b8333abd"
      },
      "filesAnalyzed": true,
      "licenseConcluded": "NOASSERTION",
      "licenseInfoFromFiles": [
        "NOASSERTION"
      ],
      "licenseDeclared": "NOASSERTION",
      "copyrightText": "NOASSERTION",
      "versionInfo": "0.0.1",
      "externalRefs": [
        {
          "referenceCategory": "PACKAGE-MANAGER",
          "referenceType": "purl",
          "referenceLocator": "pkg:swid/ndaal/gitlab.com/ndaal_public_analyse_open_source_contributions_dataset_linux_kernel_main@0.0.1?tag_id=c33dab4d-57d1-4351-863a-6a77e98b33dd"
        }
      ],
      "supplier": "Organization: ndaal",
      "hasFiles": [
        "SPDXRef-File--test-placeholder.txt-DA39A3EE5E6B4B0D3255BFEF95601890AFD80709",
        "SPDXRef-File--.git-objects-91-49c8837ba9af61ea155b1960dafb19667a05f5-38F40A955F591EE4AAA0E9AA46254A4DF505A184",
        "SPDXRef-File--.git-objects-79-c360bfe928408181103ea797695a333f96fb85-48247395F31392DB7F37982F1D2B9C1C615B2BDA",
        "SPDXRef-File--.git-objects-36-4e0504a59c4800b07156f883d1df9740ba59e5-7641373D3CDFDB9C26AC440FD4078D1B78C2320F",
        "SPDXRef-File--.git-objects-d4-3f7133d682a038f4c7b74b56896e1f629583de-90536D4E555A94B74AE702E474E5199E35C4B0D8",
        "SPDXRef-File--.git-hooks-pre-commit.sample-A79D057388EE2C2FE6561D7697F1F5EFCFF96F23",
        "SPDXRef-File--.git-hooks-prepare-commit-msg.sample-2584806BA147152AE005CB675AA4F01D5D068456",
        "SPDXRef-File--.git-FETCH-HEAD-75B4E10B3E968C1E83E7CBF736D1C1837EC31521",
        "SPDXRef-File--.config-placeholder.txt-DA39A3EE5E6B4B0D3255BFEF95601890AFD80709",
        "SPDXRef-File--robots.txt-BB250BBB67AF9A669F63CF04F489C16C9C520C06",
        "SPDXRef-File--dataset-placeholder.txt-DA39A3EE5E6B4B0D3255BFEF95601890AFD80709",
        "SPDXRef-File--.git-refs-remotes-origin-main-CE0CCD25A3E42BC85D151F5EF8B90425B8C4C98B",
        "SPDXRef-File--.git-objects-5a-c727421ab03ef4eee1641c768ef3dacb01e5b1-A41E9EFBB88E7F5359912831B9B2546FDC0A3C00",
        "SPDXRef-File--.git-objects-26-524072ddd94a21033ed2ae426d7ca9fccf9c80-DABFF57CA6901BC3AC7D1756448D8A5FE584BE07",
        "SPDXRef-File--.git-objects-e8-8b5628b8cf8eaffaf4801485d41c2217290937-AF6DE2E2EF7F7DDE4C02297F22B71FF989147708",
        "SPDXRef-File--.git-objects-b0-731e45528480e9f84cee0b216671ba4dc0bf0f-7BC24079DA243DE9517D13880354BFEBBBDE518C",
        "SPDXRef-File--.git-hooks-pre-push.sample-A599B773B930CA83DBC3A5C7C13059AC4A6EAEDC",
        "SPDXRef-File--.git-logs-refs-remotes-origin-main-1E85F8F95FE30F8CE656CBF6D74525A98BB26286",
        "SPDXRef-File--example-placeholder.txt-DA39A3EE5E6B4B0D3255BFEF95601890AFD80709",
        "SPDXRef-File--.git-refs-remotes-origin-master-1B61110C64F686DF26ECAD1C020597570144764E",
        "SPDXRef-File--.git-objects-0e-402a09854f11310f54615c7951f868a1b92fbd-EA17AF03152D3BD1A819492C9E1B68808D99D579",
        "SPDXRef-File--.git-objects-fe-dc2b3aa6d09207e908ba27df2cb9bf4e5552c2-53177E8E09EFCDD09DFD4B504FE1B1DE32C63F50",
        "SPDXRef-File--.git-objects-2e-79f59f1c4a5a7ac24bf521c21de8084309335e-4A3D6861DFF93FB85844A3AC190332C16AF6489B",
        "SPDXRef-File--.git-objects-f5-9bf787d4e3d1fcd2f70bcd9928bf9cb7d48515-742470D7FCAA4DA03D1DBA6EE7AB11027481DDD3",
        "SPDXRef-File--.git-hooks-pre-merge-commit.sample-04C64E58BC25C149482ED45DBD79E40EFFB89EB7",
        "SPDXRef-File--.git-logs-refs-remotes-origin-master-79BC8DFB1C0CD43F1CB2DC3DE3C9BBED8FD4A01C",
        "SPDXRef-File--res-placeholder.txt-DA39A3EE5E6B4B0D3255BFEF95601890AFD80709",
        "SPDXRef-File--SECURITY.rst-0777C609FD438F9381737B0852F7961BC9C580C0",
        "SPDXRef-File--.build-placeholder.txt-DA39A3EE5E6B4B0D3255BFEF95601890AFD80709",
        "SPDXRef-File--security.txt-BBD031D321B15F7AD5C366EAAF7ADB1B880F4A04",
        "SPDXRef-File--documentation-scorecard-placeholder.txt-DA39A3EE5E6B4B0D3255BFEF95601890AFD80709",
        "SPDXRef-File--.git-info-exclude-C879DF015D97615050AFA7B9641E3352A1E701AC",
        "SPDXRef-File--.git-objects-97-8d0fd62365c7e3dfe7d8c10595846fe9fa5f43-6D265BB7A39D487FAC0C5318CD7139E0B66C750C",
        "SPDXRef-File--.git-objects-b6-9db7df872541ba3e24ad08e314e3f1fa541d29-9E4F8752746FD9C976C37D096AD6FCC40D82C881",
        "SPDXRef-File--.git-objects-d7-7f3615c991410c98cbbc5f5dad1418a4dd4183-680358C1B57D1A9882D01A828422106AE7F0F0AA",
        "SPDXRef-File--.git-hooks-pre-receive.sample-705A17D259E7896F0082FE2E9F2C0C3B127BE5AC",
        "SPDXRef-File--.git-hooks-pre-applypatch.sample-F208287C1A92525DE9F5462E905A9D31DE1E2D75",
        "SPDXRef-File--.git-logs-HEAD-D533CCD157E1F03C2430C532AFAAB6E00F9D7D41",
        "SPDXRef-File--content-summary.txt-8BA330F2E37F864A5699ECD06638D13E80E1D5C9",
        "SPDXRef-File--tools-placeholder.txt-DA39A3EE5E6B4B0D3255BFEF95601890AFD80709",
        "SPDXRef-File--.git-objects-3d-4650d31a118129fd78f8ce69a0c84b3c5cbebc-E6D2028A03275180C51B511DC903B12B7100C0D8",
        "SPDXRef-File--.git-objects-b2-ba6ffd4d5f12c5b3d494ddb389a2ff0e6ff93d-14CC60B7A8373B95469993262E9831C9B6155BAC",
        "SPDXRef-File--.git-objects-e3-f3fbcef37ef9339e0a301ace87a3a034a279a2-619CC858134AD5C403FB041B04CE1264C7AC3454",
        "SPDXRef-File--.git-objects-7a-016aaebe8a2269277ca58e4fb7de087f61ddf4-041204BD1789DB3F26AA159CB42E1A7723BAAB62",
        "SPDXRef-File--.git-hooks-fsmonitor-watchman.sample-0EC0EC9AC11111433D17EA79E0AE8CEC650DCFA4",
        "SPDXRef-File--.git-hooks-commit-msg.sample-EE1ED5AAD98A435F2020B6DE35C173B75D9AFFAC",
        "SPDXRef-File--.git-config-C75DA3BF7EEB31C0EF0D980ED3353D15628C5C6C",
        "SPDXRef-File--humans.txt-83A9212D6BCD8F59891AACFBFA02E9DE5CD7344C",
        "SPDXRef-File--structure.txt-A6AE9FEAC1FD1341030760ACCD8C74299F88FEAA",
        "SPDXRef-File--src-placeholder.txt-DA39A3EE5E6B4B0D3255BFEF95601890AFD80709",
        "SPDXRef-File--.git-objects-a3-fe7b7f7ddecab6a6892f767505b5173d512f21-ED1D0FC2AF89B2B18F8DD7FA2FC26B0EC77E6154",
        "SPDXRef-File--.git-objects-52-b88c54e9d48784be1ca888f7629f03a7a1f273-B9BD5A49CD9630338F976073319D82D2B5C2D8BE",
        "SPDXRef-File--.git-objects-24-8d148f1e664d1bad95fb5503bbbe4909b2f704-CE8E9B282B287630E1A3B661D343CC1761E5C91F",
        "SPDXRef-File--.git-objects-bc-c014f3590d2a105d7c5e787f28faea8fe0ae9f-82709D9063BDFD63F8DE3F045EBF6E20291BC153",
        "SPDXRef-File--.git-hooks-push-to-checkout.sample-508240328C8B55F8157C93C43BF5E291E5D2FBCB",
        "SPDXRef-File--.git-hooks-post-update.sample-B614C2F63DA7DCA9F1DB2E7ADE61EF30448FC96C",
        "SPDXRef-File--.git-HEAD-9F1DF7EEA4156BE8A871C292B549B3325E425AA2",
        "SPDXRef-File--SECURITY.md-3D8AFF1A95C6DE3B2682B69A6B788D52D7C42B5D",
        "SPDXRef-File--README.md-D31344FBD1FE6377A179450951F836D56963A8EC",
        "SPDXRef-File--documentation-robots.txt-BB250BBB67AF9A669F63CF04F489C16C9C520C06",
        "SPDXRef-File--.git-objects-e6-9de29bb2d1d6434b8b29ae775ad8c2e48c5391-C2BAAE88D6364D878FD67E778C6A5D8306AD4AB0",
        "SPDXRef-File--.git-objects-79-de816ef8069fc601a974b4aca7c4840f3feb96-0B5BE2BF94B9C05EE9F663A2A5CE5A8DD8FF640F",
        "SPDXRef-File--.git-objects-b6-7040b6079bf6dc5126e1bc1f24f6a2f47ee038-D2185A065B7366B200FF1DB12E5B5E1EBB33E8C4",
        "SPDXRef-File--.git-objects-ba-f79e77adaaecebef4396d333891cba169274e9-A16DF4FEFDD7A2F6EDC6E105A586FFFE18135CFF",
        "SPDXRef-File--.git-hooks-pre-rebase.sample-288EFDC0027DB4CFD8B7C47C4AEDDBA09B6DED12",
        "SPDXRef-File--.git-hooks-update.sample-730E6BD5225478BAB6147B7A62A6E2AE21D40507",
        "SPDXRef-File--.git-index-D7499378DF956244438A1FE8F6422D802EB36BE1",
        "SPDXRef-File--dep-placeholder.txt-DA39A3EE5E6B4B0D3255BFEF95601890AFD80709",
        "SPDXRef-File--LICENSE-CCB1CD8DEB427328C3688BD435FED73FE282D9B9",
        "SPDXRef-File--.git-refs-heads-main-CE0CCD25A3E42BC85D151F5EF8B90425B8C4C98B",
        "SPDXRef-File--.git-objects-9b-810333862d281f78afdc06c0611ad3c5218cd1-D084F3E21112B7CBAF9AFFB8ADB210F5CE7E58AA",
        "SPDXRef-File--.git-objects-b4-280455fedeb9b484f864615fd6f04d8c2697a3-266DB6DF41080CC0D5225C22770170877604E1AD",
        "SPDXRef-File--.git-objects-14-13425aa5d689bb0afcdbbc44e73b905c054b56-5B88DEF4B6E204890F4BF4120CE31B5F9623C561",
        "SPDXRef-File--.git-objects-49-4e822575e06294c19fd2528fdeec70fe2640fa-3F80EAF937EE001239297DB2D6144FA1F3DBF4DF",
        "SPDXRef-File--.git-hooks-applypatch-msg.sample-4DE88EB95A5E93FD27E78B5FB3B5231A8D8917DD",
        "SPDXRef-File--.git-logs-refs-heads-main-E57AE2B1CB13E67D31674E9919FB1888E9A543AB",
        "SPDXRef-File--.git-description-9635F1B7E12C045212819DD934D809EF07EFA2F4",
        "SPDXRef-File--.gitignore-979C29303F054FA86D2ACA51318A4698A32B1736",
        "SPDXRef-File--content-long-list.txt-AA4C6B1BB827BB9DB64FAF3F5AA1D789CEB00A51"
      ]
    }
  ],
  "externalDocumentRefs": [],
  "relationships": [
    {
      "relationshipType": "DESCRIBES",
      "relatedSpdxElement": "SPDXRef-RootPackage",
      "spdxElementId": "SPDXRef-DOCUMENT"
    }
  ],
  "spdxVersion": "SPDX-2.2",
  "dataLicense": "CC0-1.0",
  "SPDXID": "SPDXRef-DOCUMENT",
  "name": "ndaal_public_analyse_open_source_contributions_dataset_linux_kernel_main 0.0.1",
  "documentNamespace": "https://gitlab.com/ndaal_public_analyse_open_source_contributions_dataset_linux_kernel_main/0.0.1/NWd-egiBl0WCwn76mqcBVQ",
  "creationInfo": {
    "created": "2023-12-14T08:35:51Z",
    "creators": [
      "Organization: ndaal",
      "Tool: Microsoft.SBOMTool-2.2.0"
    ]
  },
  "documentDescribes": [
    "SPDXRef-RootPackage"
  ]
}